{
  "grille": {
    "taille": 7,
    "cases": [
      {
        "neutre": -1
      },
      {
        "neutre": -1
      },
      {
        "neutre": -1
      },
      {
        "neutre": -1
      },
      {
        "somme": {
          "sommeVerticale": 3,
          "nbCasesVerticales": 2,
          "valeurHorizontale": 0,
          "nbCasesHorizontales": 0
        }
      },
      {
        "somme": {
          "sommeVerticale": 10,
          "nbCasesVerticales": 4,
          "valeurHorizontale": 0,
          "nbCasesHorizontales": 0
        }
      },
      {
        "neutre": -1
      },
      {
        "neutre": -1
      },
      {
        "neutre": -1
      },
      {
        "neutre": -1
      },
      {
        "somme": {
          "sommeVerticale": 11,
          "nbCasesVerticales": 2,
          "valeurHorizontale": 6,
          "nbCasesHorizontales": 2
        }
      },
      {
        "reponse": -1,
        "corrige": 2,
        "hypotheses":[false,false,false,false,false,false,false,false,false]
      },
      {
        "reponse": -1,
        "corrige": 4,
        "hypotheses":[false,false,false,false,false,false,false,false,false]
      },
      {
        "somme": {
          "sommeVerticale": 6,
          "nbCasesVerticales": 2,
          "valeurHorizontale": 0,
          "nbCasesHorizontales": 0
        }
      },
      {
        "neutre": -1
      },
      {
        "neutre": -1
      },
      {
        "somme": {
          "sommeVerticale": 24,
          "nbCasesVerticales": 4,
          "valeurHorizontale": 10,
          "nbCasesHorizontales": 4
        }
      },
      {
        "reponse": -1,
        "corrige": 2,
        "hypotheses":[false,false,false,false,false,false,false,false,false]
      },
      {
        "reponse": -1,
        "corrige": 1,
        "hypotheses":[false,false,false,false,false,false,false,false,false]
      },
      {
        "reponse": -1,
        "corrige": 3,
        "hypotheses":[false,false,false,false,false,false,false,false,false]
      },
      {
        "reponse": -1,
        "corrige": 4,
        "hypotheses":[false,false,false,false,false,false,false,false,false]
      },
      {
        "neutre": -1
      },
      {
        "somme": {
          "sommeVerticale": 16,
          "nbCasesVerticales": 2,
          "valeurHorizontale": 17,
          "nbCasesHorizontales": 2
        }
      },
      {
        "reponse": -1,
        "corrige": 8,
        "hypotheses":[false,false,false,false,false,false,false,false,false]
      },
      {
        "reponse": -1,
        "corrige": 9,
        "hypotheses":[false,false,false,false,false,false,false,false,false]
      },
      {
        "somme": {
          "sommeVerticale": 16,
          "nbCasesVerticales": 2,
          "valeurHorizontale": 3,
          "nbCasesHorizontales": 2
        }
      },
      {
        "reponse": -1,
        "corrige": 1,
        "hypotheses":[false,false,false,false,false,false,false,false,false]
      },
      {
        "reponse": -1,
        "corrige": 2,
        "hypotheses":[false,false,false,false,false,false,false,false,false]
      },
      {
        "somme": {
          "sommeVerticale": 0,
          "nbCasesVerticales": 0,
          "valeurHorizontale": 16,
          "nbCasesHorizontales": 2
        }
      },
      {
        "reponse": -1,
        "corrige": 9,
        "hypotheses":[false,false,false,false,false,false,false,false,false]
      },
      {
        "reponse": -1,
        "corrige": 7,
        "hypotheses":[false,false,false,false,false,false,false,false,false]
      },
      {
        "somme": {
          "sommeVerticale": 4,
          "nbCasesVerticales": 2,
          "valeurHorizontale": 9,
          "nbCasesHorizontales": 2
        }
      },
      {
        "reponse": -1,
        "corrige": 7,
        "hypotheses":[false,false,false,false,false,false,false,false,false]
      },
      {
        "reponse": -1,
        "corrige": 2,
        "hypotheses":[false,false,false,false,false,false,false,false,false]
      },
      {
        "neutre": -1
      },
      {
        "somme": {
          "sommeVerticale": 0,
          "nbCasesVerticales": 0,
          "valeurHorizontale": 25,
          "nbCasesHorizontales": 4
        }
      },
      {
        "reponse": -1,
        "corrige": 7,
        "hypotheses":[false,false,false,false,false,false,false,false,false]
      },
      {
        "reponse": -1,
        "corrige": 6,
        "hypotheses":[false,false,false,false,false,false,false,false,false]
      },
      {
        "reponse": -1,
        "corrige": 3,
        "hypotheses":[false,false,false,false,false,false,false,false,false]
      },
      {
        "reponse": -1,
        "corrige": 9,
        "hypotheses":[false,false,false,false,false,false,false,false,false]
      },
      {
        "neutre": -1
      },
      {
        "neutre": -1
      },
      {
        "neutre": -1
      },
      {
        "somme": {
          "sommeVerticale": 0,
          "nbCasesVerticales": 0,
          "valeurHorizontale": 4,
          "nbCasesHorizontales": 2
        }
      },
      {
        "reponse": -1,
        "corrige": 3,
        "hypotheses":[false,false,false,false,false,false,false,false,false]
      },
      {
        "reponse": -1,
        "corrige": 1,
        "hypotheses":[false,false,false,false,false,false,false,false,false]
      },
      {
        "neutre": -1
      },
      {
        "neutre": -1
      },
      {
        "neutre": -1
      }
    ]
  }
}