{
  "grille": {
    "taille": 5,
    "cases": [
      {
        "neutre": -1
      },
      {
        "neutre": -1
      },
      {
        "somme": {
          "sommeVerticale": 30,
          "nbCasesVerticales": 4,
          "valeurHorizontale": 0,
          "nbCasesHorizontales": 0
        }
      },
      {
        "somme": {
          "sommeVerticale": 29,
          "nbCasesVerticales": 4,
          "valeurHorizontale": 0,
          "nbCasesHorizontales": 0
        }
      },
      {
        "neutre": -1
      },
      {
        "neutre": -1
      },
      {
        "somme": {
          "sommeVerticale": 3,
          "nbCasesVerticales": 2,
          "valeurHorizontale": 16,
          "nbCasesHorizontales": 2
        }
      },
      {
        "reponse": -1,
        "corrige": 7,
        "hypotheses":[false,false,false,false,false,false,false,false,false]
      },
      {
        "reponse": -1,
        "corrige": 9,
        "hypotheses":[false,false,false,false,false,false,false,false,false]
      },
      {
        "somme": {
          "sommeVerticale": 16,
          "nbCasesVerticales": 2,
          "valeurHorizontale": 0,
          "nbCasesHorizontales": 0
        }
      },
      {
        "somme": {
          "sommeVerticale": 0,
          "nbCasesVerticales": 0,
          "valeurHorizontale": 24,
          "nbCasesHorizontales": 4
        }
      },
      {
        "reponse": -1,
        "corrige": 2,
        "hypotheses":[false,false,false,false,false,false,false,false,false]
      },
      {
        "reponse": -1,
        "corrige": 6,
        "hypotheses":[false,false,false,false,false,false,false,false,false]
      },
      {
        "reponse": -1,
        "corrige": 7,
        "hypotheses":[false,false,false,false,false,false,false,false,false]
      },
      {
        "reponse": -1,
        "corrige": 9,
        "hypotheses":[false,false,false,false,false,false,false,false,false]
      },
      {
        "somme": {
          "sommeVerticale": 0,
          "nbCasesVerticales": 0,
          "valeurHorizontale": 21,
          "nbCasesHorizontales": 4
        }
      },
      {
        "reponse": -1,
        "corrige": 1,
        "hypotheses":[false,false,false,false,false,false,false,false,false]
      },
      {
        "reponse": -1,
        "corrige": 8,
        "hypotheses":[false,false,false,false,false,false,false,false,false]
      },
      {
        "reponse": -1,
        "corrige": 5,
        "hypotheses":[false,false,false,false,false,false,false,false,false]
      },
      {
        "reponse": -1,
        "corrige": 7,
        "hypotheses":[false,false,false,false,false,false,false,false,false]
      },
      {
        "neutre": -1
      },
      {
        "somme": {
          "sommeVerticale": 0,
          "nbCasesVerticales": 0,
          "valeurHorizontale": 17,
          "nbCasesHorizontales": 2
        }
      },
      {
        "reponse": -1,
        "corrige": 9,
        "hypotheses":[false,false,false,false,false,false,false,false,false]
      },
      {
        "reponse": -1,
        "corrige": 8,
        "hypotheses":[false,false,false,false,false,false,false,false,false]
      },
      {
        "neutre": -1
      }
    ]
  }
}