{
  "grille": {
    "taille": 10,
    "cases": [
      {
        "neutre": -1
      },
      {
        "neutre": -1
      },
      {
        "neutre": -1
      },
      {
        "somme": {
          "sommeVerticale": 16,
          "nbCasesVerticales": 2,
          "valeurHorizontale": 0,
          "nbCasesHorizontales": 0
        }
      },
      {
        "somme": {
          "sommeVerticale": 11,
          "nbCasesVerticales": 3,
          "valeurHorizontale": 0,
          "nbCasesHorizontales": 0
        }
      },
      {
        "neutre": -1
      },
      {
        "somme": {
          "sommeVerticale": 8,
          "nbCasesVerticales": 3,
          "valeurHorizontale": 0,
          "nbCasesHorizontales": 0
        }
      },
      {
        "somme": {
          "sommeVerticale": 6,
          "nbCasesVerticales": 2,
          "valeurHorizontale": 0,
          "nbCasesHorizontales": 0
        }
      },
      {
        "neutre": -1
      },
      {
        "neutre": -1
      },
      {
        "neutre": -1
      },
      {
        "neutre": -1
      },
      {
        "somme": {
          "sommeVerticale": 42,
          "nbCasesVerticales": 7,
          "valeurHorizontale": 16,
          "nbCasesHorizontales": 2
        }
      },
      {
        "reponse": -1,
        "corrige": 9,
        "hypotheses":[false,false,false,false,false,false,false,false,false]
      },
      {
        "reponse": -1,
        "corrige": 7,
        "hypotheses":[false,false,false,false,false,false,false,false,false]
      },
      {
        "somme": {
          "sommeVerticale": 3,
          "nbCasesVerticales": 2,
          "valeurHorizontale": 3,
          "nbCasesHorizontales": 2
        }
      },
      {
        "reponse": -1,
        "corrige": 1,
        "hypotheses":[false,false,false,false,false,false,false,false,false]
      },
      {
        "reponse": -1,
        "corrige": 2,
        "hypotheses":[false,false,false,false,false,false,false,false,false]
      },
      {
        "somme": {
          "sommeVerticale": 41,
          "nbCasesVerticales": 7,
          "valeurHorizontale": 0,
          "nbCasesHorizontales": 0
        }
      },
      {
        "neutre": -1
      },
      {
        "neutre": -1
      },
      {
        "somme": {
          "sommeVerticale": 9,
          "nbCasesVerticales": 2,
          "valeurHorizontale": 28,
          "nbCasesHorizontales": 7
        }
      },
      {
        "reponse": -1,
        "corrige": 3,
        "hypotheses":[false,false,false,false,false,false,false,false,false]
      },
      {
        "reponse": -1,
        "corrige": 7,
        "hypotheses":[false,false,false,false,false,false,false,false,false]
      },
      {
        "reponse": -1,
        "corrige": 1,
        "hypotheses":[false,false,false,false,false,false,false,false,false]
      },
      {
        "reponse": -1,
        "corrige": 2,
        "hypotheses":[false,false,false,false,false,false,false,false,false]
      },
      {
        "reponse": -1,
        "corrige": 5,
        "hypotheses":[false,false,false,false,false,false,false,false,false]
      },
      {
        "reponse": -1,
        "corrige": 4,
        "hypotheses":[false,false,false,false,false,false,false,false,false]
      },
      {
        "reponse": -1,
        "corrige": 6,
        "hypotheses":[false,false,false,false,false,false,false,false,false]
      },
      {
        "somme": {
          "sommeVerticale": 3,
          "nbCasesVerticales": 1,
          "valeurHorizontale": 0,
          "nbCasesHorizontales": 0
        }
      },
      {
        "somme": {
          "sommeVerticale": 0,
          "nbCasesVerticales": 0,
          "valeurHorizontale": 5,
          "nbCasesHorizontales": 2
        }
      },
      {
        "reponse": -1,
        "corrige": 1,
        "hypotheses":[false,false,false,false,false,false,false,false,false]
      },
      {
        "reponse": -1,
        "corrige": 4,
        "hypotheses":[false,false,false,false,false,false,false,false,false]
      },
      {
        "somme": {
          "sommeVerticale": 23,
          "nbCasesVerticales": 6,
          "valeurHorizontale": 6,
          "nbCasesHorizontales": 3
        }
      },
      {
        "reponse": -1,
        "corrige": 3,
        "hypotheses":[false,false,false,false,false,false,false,false,false]
      },
      {
        "reponse": -1,
        "corrige": 1,
        "hypotheses":[false,false,false,false,false,false,false,false,false]
      },
      {
        "reponse": -1,
        "corrige": 2,
        "hypotheses":[false,false,false,false,false,false,false,false,false]
      },
      {
        "somme": {
          "sommeVerticale": 7,
          "nbCasesVerticales": 3,
          "valeurHorizontale": 7,
          "nbCasesHorizontales": 2
        }
      },
      {
        "reponse": -1,
        "corrige": 5,
        "hypotheses":[false,false,false,false,false,false,false,false,false]
      },
      {
        "reponse": -1,
        "corrige": 2,
        "hypotheses":[false,false,false,false,false,false,false,false,false]
      },
      {
        "somme": {
          "sommeVerticale": 0,
          "nbCasesVerticales": 0,
          "valeurHorizontale": 22,
          "nbCasesHorizontales": 3
        }
      },
      {
        "reponse": -1,
        "corrige": 8,
        "hypotheses":[false,false,false,false,false,false,false,false,false]
      },
      {
        "reponse": -1,
        "corrige": 5,
        "hypotheses":[false,false,false,false,false,false,false,false,false]
      },
      {
        "reponse": -1,
        "corrige": 9,
        "hypotheses":[false,false,false,false,false,false,false,false,false]
      },
      {
        "neutre": -1
      },
      {
        "neutre": -1
      },
      {
        "somme": {
          "sommeVerticale": 0,
          "nbCasesVerticales": 0,
          "valeurHorizontale": 7,
          "nbCasesHorizontales": 3
        }
      },
      {
        "reponse": -1,
        "corrige": 4,
        "hypotheses":[false,false,false,false,false,false,false,false,false]
      },
      {
        "reponse": -1,
        "corrige": 2,
        "hypotheses":[false,false,false,false,false,false,false,false,false]
      },
      {
        "reponse": -1,
        "corrige": 1,
        "hypotheses":[false,false,false,false,false,false,false,false,false]
      },
      {
        "neutre": -1
      },
      {
        "somme": {
          "sommeVerticale": 16,
          "nbCasesVerticales": 2,
          "valeurHorizontale": 15,
          "nbCasesHorizontales": 2
        }
      },
      {
        "reponse": -1,
        "corrige": 7,
        "hypotheses":[false,false,false,false,false,false,false,false,false]
      },
      {
        "reponse": -1,
        "corrige": 8,
        "hypotheses":[false,false,false,false,false,false,false,false,false]
      },
      {
        "neutre": -1
      },
      {
        "neutre": -1
      },
      {
        "somme": {
          "sommeVerticale": 0,
          "nbCasesVerticales": 0,
          "valeurHorizontale": 9,
          "nbCasesHorizontales": 2
        }
      },
      {
        "reponse": -1,
        "corrige": 2,
        "hypotheses":[false,false,false,false,false,false,false,false,false]
      },
      {
        "reponse": -1,
        "corrige": 7,
        "hypotheses":[false,false,false,false,false,false,false,false,false]
      },
      {
        "somme": {
          "sommeVerticale": 3,
          "nbCasesVerticales": 2,
          "valeurHorizontale": 0,
          "nbCasesHorizontales": 0
        }
      },
      {
        "somme": {
          "sommeVerticale": 0,
          "nbCasesVerticales": 0,
          "valeurHorizontale": 23,
          "nbCasesHorizontales": 3
        }
      },
      {
        "reponse": -1,
        "corrige": 9,
        "hypotheses":[false,false,false,false,false,false,false,false,false]
      },
      {
        "reponse": -1,
        "corrige": 8,
        "hypotheses":[false,false,false,false,false,false,false,false,false]
      },
      {
        "reponse": -1,
        "corrige": 6,
        "hypotheses":[false,false,false,false,false,false,false,false,false]
      },
      {
        "somme": {
          "sommeVerticale": 17,
          "nbCasesVerticales": 3,
          "valeurHorizontale": 0,
          "nbCasesHorizontales": 0
        }
      },
      {
        "somme": {
          "sommeVerticale": 4,
          "nbCasesVerticales": 2,
          "valeurHorizontale": 0,
          "nbCasesHorizontales": 0
        }
      },
      {
        "somme": {
          "sommeVerticale": 12,
          "nbCasesVerticales": 3,
          "valeurHorizontale": 12,
          "nbCasesHorizontales": 3
        }
      },
      {
        "reponse": -1,
        "corrige": 1,
        "hypotheses":[false,false,false,false,false,false,false,false,false]
      },
      {
        "reponse": -1,
        "corrige": 9,
        "hypotheses":[false,false,false,false,false,false,false,false,false]
      },
      {
        "reponse": -1,
        "corrige": 2,
        "hypotheses":[false,false,false,false,false,false,false,false,false]
      },
      {
        "somme": {
          "sommeVerticale": 0,
          "nbCasesVerticales": 0,
          "valeurHorizontale": 16,
          "nbCasesHorizontales": 2
        }
      },
      {
        "reponse": -1,
        "corrige": 7,
        "hypotheses":[false,false,false,false,false,false,false,false,false]
      },
      {
        "reponse": -1,
        "corrige": 9,
        "hypotheses":[false,false,false,false,false,false,false,false,false]
      },
      {
        "somme": {
          "sommeVerticale": 16,
          "nbCasesVerticales": 2,
          "valeurHorizontale": 7,
          "nbCasesHorizontales": 3
        }
      },
      {
        "reponse": -1,
        "corrige": 4,
        "hypotheses":[false,false,false,false,false,false,false,false,false]
      },
      {
        "reponse": -1,
        "corrige": 1,
        "hypotheses":[false,false,false,false,false,false,false,false,false]
      },
      {
        "reponse": -1,
        "corrige": 2,
        "hypotheses":[false,false,false,false,false,false,false,false,false]
      },
      {
        "somme": {
          "sommeVerticale": 3,
          "nbCasesVerticales": 2,
          "valeurHorizontale": 5,
          "nbCasesHorizontales": 2
        }
      },
      {
        "reponse": -1,
        "corrige": 4,
        "hypotheses":[false,false,false,false,false,false,false,false,false]
      },
      {
        "reponse": -1,
        "corrige": 1,
        "hypotheses":[false,false,false,false,false,false,false,false,false]
      },
      {
        "neutre": -1
      },
      {
        "somme": {
          "sommeVerticale": 0,
          "nbCasesVerticales": 0,
          "valeurHorizontale": 39,
          "nbCasesHorizontales": 7
        }
      },
      {
        "reponse": -1,
        "corrige": 6,
        "hypotheses":[false,false,false,false,false,false,false,false,false]
      },
      {
        "reponse": -1,
        "corrige": 7,
        "hypotheses":[false,false,false,false,false,false,false,false,false]
      },
      {
        "reponse": -1,
        "corrige": 5,
        "hypotheses":[false,false,false,false,false,false,false,false,false]
      },
      {
        "reponse": -1,
        "corrige": 3,
        "hypotheses":[false,false,false,false,false,false,false,false,false]
      },
      {
        "reponse": -1,
        "corrige": 9,
        "hypotheses":[false,false,false,false,false,false,false,false,false]
      },
      {
        "reponse": -1,
        "corrige": 1,
        "hypotheses":[false,false,false,false,false,false,false,false,false]
      },
      {
        "reponse": -1,
        "corrige": 8,
        "hypotheses":[false,false,false,false,false,false,false,false,false]
      },
      {
        "neutre": -1
      },
      {
        "neutre": -1
      },
      {
        "neutre": -1
      },
      {
        "somme": {
          "sommeVerticale": 0,
          "nbCasesVerticales": 0,
          "valeurHorizontale": 17,
          "nbCasesHorizontales": 2
        }
      },
      {
        "reponse": -1,
        "corrige": 9,
        "hypotheses":[false,false,false,false,false,false,false,false,false]
      },
      {
        "reponse": -1,
        "corrige": 8,
        "hypotheses":[false,false,false,false,false,false,false,false,false]
      },
      {
        "somme": {
          "sommeVerticale": 0,
          "nbCasesVerticales": 0,
          "valeurHorizontale": 3,
          "nbCasesHorizontales": 2
        }
      },
      {
        "reponse": -1,
        "corrige": 1,
        "hypotheses":[false,false,false,false,false,false,false,false,false]
      },
      {
        "reponse": -1,
        "corrige": 2,
        "hypotheses":[false,false,false,false,false,false,false,false,false]
      },
      {
        "neutre": -1
      },
      {
        "neutre": -1
      }
    ]
  }
}
