{
  "grille": {
    "taille": 5,
    "cases": [
      {
        "neutre": -1
      },
      {
        "neutre": -1
      },
      {
        "neutre": -1
      },
      {
        "somme": {
          "sommeVerticale": 18,
          "nbCasesVerticales": 3,
          "valeurHorizontale": 0,
          "nbCasesHorizontales": 0
        }
      },
      {
        "somme": {
          "sommeVerticale": 15,
          "nbCasesVerticales": 2,
          "valeurHorizontale": 0,
          "nbCasesHorizontales": 0
        }
      },
      {
        "neutre": -1
      },
      {
        "neutre": -1
      },
      {
        "somme": {
          "sommeVerticale": 14,
          "nbCasesVerticales": 3,
          "valeurHorizontale": 16,
          "nbCasesHorizontales": 2
        }
      },
      {
        "reponse": -1,
        "corrige": 9,
        "hypotheses":[false,false,false,false,false,false,false,false,false]
      },
      {
        "reponse": -1,
        "corrige": 7,
        "hypotheses":[false,false,false,false,false,false,false,false,false]
      },
      {
        "neutre": -1
      },
      {
        "somme": {
          "sommeVerticale": 3,
          "nbCasesVerticales": 2,
          "valeurHorizontale": 24,
          "nbCasesHorizontales": 3
        }
      },
      {
        "reponse": -1,
        "corrige": 9,
        "hypotheses":[false,false,false,false,false,false,false,false,false]
      },
      {
        "reponse": -1,
        "corrige": 7,
        "hypotheses":[false,false,false,false,false,false,false,false,false]
      },
      {
        "reponse": -1,
        "corrige": 8,
        "hypotheses":[false,false,false,false,false,false,false,false,false]
      },
      {
        "somme": {
          "sommeVerticale": 0,
          "nbCasesVerticales": 0,
          "valeurHorizontale": 7,
          "nbCasesHorizontales": 3
        }
      },
      {
        "reponse": -1,
        "corrige": 1,
        "hypotheses":[false,false,false,false,false,false,false,false,false]
      },
      {
        "reponse": -1,
        "corrige": 4,
        "hypotheses":[false,false,false,false,false,false,false,false,false]
      },
      {
        "reponse": -1,
        "corrige": 2,
        "hypotheses":[false,false,false,false,false,false,false,false,false]
      },
      {
        "neutre": -1
      },
      {
        "somme": {
          "sommeVerticale": 0,
          "nbCasesVerticales": 0,
          "valeurHorizontale": 3,
          "nbCasesHorizontales": 2
        }
      },
      {
        "reponse": -1,
        "corrige": 2,
        "hypotheses":[false,false,false,false,false,false,false,false,false]
      },
      {
        "reponse": -1,
        "corrige": 1,
        "hypotheses":[false,false,false,false,false,false,false,false,false]
      },
      {
        "neutre": -1
      },
      {
        "neutre": -1
      }
    ]
  }
}
