{
  "grille": {
    "taille": 5,
    "cases": [
      {
        "neutre": -1
      },
      {
        "neutre": -1
      },
      {
        "neutre": -1
      },
      {
        "somme": {
          "sommeVerticale": 19,
          "nbCasesVerticales": 3,
          "valeurHorizontale": 0,
          "nbCasesHorizontales": 0
        }
      },
      {
        "somme": {
          "sommeVerticale": 23,
          "nbCasesVerticales": 3,
          "valeurHorizontale": 0,
          "nbCasesHorizontales": 0
        }
      },
      {
        "neutre": -1
      },
      {
        "somme": {
          "sommeVerticale": 6,
          "nbCasesVerticales": 3,
          "valeurHorizontale": 0,
          "nbCasesHorizontales": 0
        }
      },
      {
        "somme": {
          "sommeVerticale": 7,
          "nbCasesVerticales": 3,
          "valeurHorizontale": 16,
          "nbCasesHorizontales": 2
        }
      },
      {
        "reponse": -1,
        "corrige": 7,
        "hypotheses":[false,false,false,false,false,false,false,false,false]
      },
      {
        "reponse": -1,
        "corrige": 9,
        "hypotheses":[false,false,false,false,false,false,false,false,false]
      },
      {
        "somme": {
          "sommeVerticale": 0,
          "nbCasesVerticales": 0,
          "valeurHorizontale": 12,
          "nbCasesHorizontales": 4
        }
      },
      {
        "reponse": -1,
        "corrige": 1,
        "hypotheses":[false,false,false,false,false,false,false,false,false]
      },
      {
        "reponse": -1,
        "corrige": 2,
        "hypotheses":[false,false,false,false,false,false,false,false,false]
      },
      {
        "reponse": -1,
        "corrige": 3,
        "hypotheses":[false,false,false,false,false,false,false,false,false]
      },
      {
        "reponse": -1,
        "corrige": 6,
        "hypotheses":[false,false,false,false,false,false,false,false,false]
      },
      {
        "somme": {
          "sommeVerticale": 0,
          "nbCasesVerticales": 0,
          "valeurHorizontale": 23,
          "nbCasesHorizontales": 4
        }
      },
      {
        "reponse": -1,
        "corrige": 2,
        "hypotheses":[false,false,false,false,false,false,false,false,false]
      },
      {
        "reponse": -1,
        "corrige": 4,
        "hypotheses":[false,false,false,false,false,false,false,false,false]
      },
      {
        "reponse": -1,
        "corrige": 9,
        "hypotheses":[false,false,false,false,false,false,false,false,false]
      },
      {
        "reponse": -1,
        "corrige": 8,
        "hypotheses":[false,false,false,false,false,false,false,false,false]
      },
      {
        "somme": {
          "sommeVerticale": 0,
          "nbCasesVerticales": 0,
          "valeurHorizontale": 4,
          "nbCasesHorizontales": 2
        }
      },
      {
        "reponse": -1,
        "corrige": 3,
        "hypotheses":[false,false,false,false,false,false,false,false,false]
      },
      {
        "reponse": -1,
        "corrige": 1,
        "hypotheses":[false,false,false,false,false,false,false,false,false]
      },
      {
        "neutre": -1
      },
      {
        "neutre": -1
      }
    ]
  }
}