{
  "grille": {
    "taille": 5,
    "cases": [
      {
        "neutre": -1
      },
      {
        "neutre": -1
      },
      {
        "neutre": -1
      },
      {
        "somme": {
          "sommeVerticale": 6,
          "nbCasesVerticales": 3,
          "valeurHorizontale": 0,
          "nbCasesHorizontales": 0
        }
      },
      {
        "somme": {
          "sommeVerticale": 3,
          "nbCasesVerticales": 2,
          "valeurHorizontale": 0,
          "nbCasesHorizontales": 0
        }
      },
      {
        "neutre": -1
      },
      {
        "neutre": -1
      },
      {
        "somme": {
          "sommeVerticale": 8,
          "nbCasesVerticales": 3,
          "valeurHorizontale": 4,
          "nbCasesHorizontales": 2
        }
      },
      {
        "reponse": -1,
        "corrige": 3
      },
      {
        "reponse": -1,
        "corrige": 1
      },
      {
        "neutre": -1
      },
      {
        "somme": {
          "sommeVerticale": 6,
          "nbCasesVerticales": 2,
          "valeurHorizontale": 7,
          "nbCasesHorizontales": 2
        }
      },
      {
        "reponse": -1,
        "corrige": 4
      },
      {
        "reponse": -1,
        "corrige": 1
      },
      {
        "reponse": -1,
        "corrige": 2
      },
      {
        "somme": {
          "sommeVerticale": 0,
          "nbCasesVerticales": 0,
          "valeurHorizontale": 7,
          "nbCasesHorizontales": 3
        }
      },
      {
        "reponse": -1,
        "corrige": 4
      },
      {
        "reponse": -1,
        "corrige": 1
      },
      {
        "reponse": -1,
        "corrige": 2
      },
      {
        "neutre": -1
      },
      {
        "somme": {
          "sommeVerticale": 0,
          "nbCasesVerticales": 0,
          "valeurHorizontale": 5,
          "nbCasesHorizontales": 2
        }
      },
      {
        "reponse": -1,
        "corrige": 2
      },
      {
        "reponse": -1,
        "corrige": 3
      },
      {
        "neutre": -1
      },
      {
        "neutre": -1
      }
    ]
  }
}