<?xml version="1.0" encoding="UTF-8"?>
<svg xmlns="http://www.w3.org/2000/svg" xmlns:xlink="http://www.w3.org/1999/xlink" width="20pt" height="20pt" viewBox="0 0 20 20" version="1.1">
<g id="surface1">
<path style=" stroke:none;fill-rule:nonzero;fill:rgb(0%,0%,0%);fill-opacity:1;" d="M 19.449219 10.699219 C 20.183594 9.96875 20.183594 8.78125 19.449219 8.050781 L 13.199219 1.800781 C 12.46875 1.066406 11.28125 1.066406 10.550781 1.800781 L 0.550781 11.800781 C -0.183594 12.53125 -0.183594 13.71875 0.550781 14.449219 L 4.300781 18.199219 C 4.652344 18.550781 5.128906 18.75 5.625 18.75 L 19.53125 18.75 C 19.789062 18.75 20 18.539062 20 18.28125 L 20 16.71875 C 20 16.460938 19.789062 16.25 19.53125 16.25 L 13.902344 16.25 Z M 7.628906 8.253906 L 12.996094 13.621094 L 10.367188 16.25 L 5.882812 16.25 L 2.757812 13.125 Z M 7.628906 8.253906 "/>
</g>
</svg>
